government = monarchy
add_government_reform = autocracy_reform
government_rank = 1
primary_culture = olavish
religion = skaldhyrric_faith
technology_group = tech_cannorian
capital = 982
national_focus = DIP

1435.2.23 = {
	monarch = {
		name = "Floki Halftansson"
		dynasty = "Bjarnsson"
		birth_date = 1422.3.5
		adm = 4
		dip = 3
		mil = 5
		}
	queen = {
		country_of_origin = Z12
		name = "Sigrid of Olavslund"
		dynasty = "of Olavslund"
		birth_date = 1425.1.12
		death_date = 1459.8.9
		female = yes
		adm = 2
		dip = 5
		mil = 4
	}
}
1000.1.1 = { set_country_flag = mage_organization_decentralized_flag }