#464 - Astrakhan

owner = F01
controller = F01
add_core = F01
add_core = F04
culture = kheteratan
religion = khetist

hre = no

base_tax = 4
base_production = 6
base_manpower = 5

trade_goods = grain
center_of_trade = 1

capital = ""

is_city = yes









